<?xml version="1.0" encoding="windows-1252" standalone="no"?>
<!DOCTYPE log SYSTEM "logger.dtd">
<log>
<record>
  <date>2020-10-28T12:04:35.407786600Z</date>
  <millis>1603886675407</millis>
  <nanos>786600</nanos>
  <sequence>2</sequence>
  <logger>swtkal</logger>
  <level>WARNING</level>
  <class>swtkal.server.SimpleServer</class>
  <method>authenticatePerson</method>
  <thread>20</thread>
  <message>Wrong password for userid ADM</message>
</record>
</log>
